…
``` r
Rbnb::searchLocation(location, metadata.only=TRUE, verbose=FALSE)
```

Results
-------

Here's a look at the actual dataframe we've pulled.

``` r
content$results$data
```

    ## # A tibble: 390 × 54
    ##    bathrooms bedrooms  beds    city       id instant.bookable
    ##        <dbl>    <dbl> <dbl>   <chr>    <chr>            <chr>
    ## 1          1        1     2 Chicago 17582836             TRUE
    ## 2          1        1     1 Chicago 17544023             TRUE
    ## 3          1        0     1 Chicago 17713990             TRUE
    ## 4          1        1     2 Chicago 17316903             TRUE
    ## 5          1        0     1 Chicago 16605075             TRUE
    ## 6          1        0     2 Chicago 17510572             TRUE
    ## 7          1        0     2 Chicago 15956773            FALSE
    ## 8          1        1     2 Chicago 16324985             TRUE
    ## 9          1        1     2 Chicago 17263099             TRUE
    ## 10         1        0     1 Chicago 16947779             TRUE
    ## # ... with 380 more rows, and 48 more variables:
    ## #   is.business.travel.ready <chr>, is.new.listing <chr>, lat <dbl>,
    ## #   lng <dbl>, localized.city <chr>, name <chr>, neighborhood <chr>,
    ## #   person.capacity <dbl>, picture.count <dbl>,
    ## #   primary.host.first.name <chr>, primary.host.has.profile.pic <chr>,
    ## #   primary.host.id <chr>, primary.host.smart.name <chr>,
    ## #   primary.host.is.superhost <chr>, property.type <chr>,
    ## #   property.type.id <chr>, public.address <chr>, reviews.count <dbl>,
    ## #   room.type <chr>, room.type.category <chr>, star.rating <dbl>,
…
